{
  "authors": [
    {
      "name": "Author 1",
      "id": 1
    },
    {
      "name": "Author 2",
      "id": 2
    },
    {
      "name": "Author 3",
      "id": 3
    }
  ],
  "publishers": [
    {
      "name": "Publisher 1",
      "id": 1
    },
    {
      "name": "Publisher 2",
      "id": 2
    },
    {
      "name": "Publisher 3",
      "id": 3
    }
  ],
  "formats": [
    {
      "name": "TXT",
      "id": 1
    },
    {
      "name": "EPUB",
      "id": 2
    },
    {
      "name": "PDF",
      "id": 3
    }
  ],
  "languages": [
    {
      "name": "English",
      "id": 1
    },
    {
      "name": "German",
      "id": 2
    },
    {
      "name": "Italian",
      "id": 3
    }
  ]
}
